<?xml version="1.0" encoding="UTF-8"?>
<svg width="13px" height="13px" viewBox="0 0 13 13" version="1.1" xmlns="http://www.w3.org/2000/svg" xmlns:xlink="http://www.w3.org/1999/xlink">
    <!-- Generator: Sketch 54.1 (76490) - https://sketchapp.com -->
    <title>Group</title>
    <desc>Created with Sketch.</desc>
    <g id="Style-guide" stroke="none" stroke-width="1" fill="none" fill-rule="evenodd">
        <g id="Style-Guide---Componentes" transform="translate(-162.000000, -686.000000)" fill="#5C6365" fill-rule="nonzero">
            <g id="Group-5" transform="translate(141.000000, 552.000000)">
                <g id="Group" transform="translate(21.000000, 134.000000)">
                    <path d="M2,2 L3.862,2 C4.41428475,2 4.862,1.55228475 4.862,1 C4.862,0.44771525 4.41428475,-1.42108547e-14 3.862,-1.42108547e-14 L1,-1.42108547e-14 C0.44771525,-1.42108547e-14 4.9471538e-13,0.44771525 4.9471538e-13,1 L4.9471538e-13,3.862 C4.9471538e-13,4.41428475 0.44771525,4.862 1,4.862 C1.55228475,4.862 2,4.41428475 2,3.862 L2,2 Z" id="Stroke-5"></path>
                    <path d="M0.714893219,2.10760678 L3.91289322,5.30560678 C4.30341751,5.69613107 4.93658249,5.69613107 5.32710678,5.30560678 C5.71763107,4.91508249 5.71763107,4.28191751 5.32710678,3.89139322 L2.12910678,0.693393219 C1.73858249,0.302868927 1.10541751,0.302868927 0.714893219,0.693393219 C0.324368927,1.08391751 0.324368927,1.71708249 0.714893219,2.10760678 Z" id="Stroke-7"></path>
                    <path d="M10.4325,2 L10.4325,3.862 C10.4325,4.41428475 10.8802153,4.862 11.4325,4.862 C11.9847847,4.862 12.4325,4.41428475 12.4325,3.862 L12.4325,1 C12.4325,0.44771525 11.9847847,-1.42108547e-14 11.4325,-1.42108547e-14 L8.5715,-1.42108547e-14 C8.01921525,-1.42108547e-14 7.5715,0.44771525 7.5715,1 C7.5715,1.55228475 8.01921525,2 8.5715,2 L10.4325,2 Z" id="Stroke-9"></path>
                    <path d="M10.3042932,0.693393219 L7.10629322,3.89139322 C6.71576893,4.28191751 6.71576893,4.91508249 7.10629322,5.30560678 C7.49681751,5.69613107 8.12998249,5.69613107 8.52050678,5.30560678 L11.7185068,2.10760678 C12.1090311,1.71708249 12.1090311,1.08391751 11.7185068,0.693393219 C11.3279825,0.302868927 10.6948175,0.302868927 10.3042932,0.693393219 Z" id="Stroke-11"></path>
                    <path d="M8.5715,10.7048 C8.01921525,10.7048 7.5715,11.1525153 7.5715,11.7048 C7.5715,12.2570847 8.01921525,12.7048 8.5715,12.7048 L11.4325,12.7048 C11.9847847,12.7048 12.4325,12.2570847 12.4325,11.7048 L12.4325,8.8428 C12.4325,8.29051525 11.9847847,7.8428 11.4325,7.8428 C10.8802153,7.8428 10.4325,8.29051525 10.4325,8.8428 L10.4325,10.7048 L8.5715,10.7048 Z" id="Stroke-13"></path>
                    <path d="M11.7185068,10.5971932 L8.52050678,7.39919322 C8.12998249,7.00866893 7.49681751,7.00866893 7.10629322,7.39919322 C6.71576893,7.78971751 6.71576893,8.42288249 7.10629322,8.81340678 L10.3042932,12.0114068 C10.6948175,12.4019311 11.3279825,12.4019311 11.7185068,12.0114068 C12.1090311,11.6208825 12.1090311,10.9877175 11.7185068,10.5971932 Z" id="Stroke-15"></path>
                    <path d="M2,8.8428 C2,8.29051525 1.55228475,7.8428 1,7.8428 C0.44771525,7.8428 4.9471538e-13,8.29051525 4.9471538e-13,8.8428 L4.9471538e-13,11.7048 C4.9471538e-13,12.2570847 0.44771525,12.7048 1,12.7048 L3.862,12.7048 C4.41428475,12.7048 4.862,12.2570847 4.862,11.7048 C4.862,11.1525153 4.41428475,10.7048 3.862,10.7048 L2,10.7048 L2,8.8428 Z" id="Stroke-17"></path>
                    <path d="M2.12910678,12.0114068 L5.32710678,8.81340678 C5.71763107,8.42288249 5.71763107,7.78971751 5.32710678,7.39919322 C4.93658249,7.00866893 4.30341751,7.00866893 3.91289322,7.39919322 L0.714893219,10.5971932 C0.324368927,10.9877175 0.324368927,11.6208825 0.714893219,12.0114068 C1.10541751,12.4019311 1.73858249,12.4019311 2.12910678,12.0114068 Z" id="Stroke-19"></path>
                </g>
            </g>
        </g>
    </g>
</svg>